<?xml version="1.0" encoding="UTF-8" standalone="no"?>
<!DOCTYPE svg PUBLIC "-//W3C//DTD SVG 1.1//EN"
 "http://www.w3.org/Graphics/SVG/1.1/DTD/svg11.dtd">
<!-- Generated by graphviz version 11.0.0 (20240428.1522)
 -->
<!-- Title: snakemake_dag Pages: 1 -->
<svg width="330pt" height="260pt"
 viewBox="0.00 0.00 330.00 260.00" xmlns="http://www.w3.org/2000/svg" xmlns:xlink="http://www.w3.org/1999/xlink">
<g id="graph0" class="graph" transform="scale(1 1) rotate(0) translate(4 256)">
<title>snakemake_dag</title>
<polygon fill="white" stroke="none" points="-4,4 -4,-256 326,-256 326,4 -4,4"/>
<!-- 0 -->
<g id="node1" class="node">
<title>0</title>
<path fill="none" stroke="#56d8d8" stroke-width="2" d="M175.5,-36C175.5,-36 145.5,-36 145.5,-36 139.5,-36 133.5,-30 133.5,-24 133.5,-24 133.5,-12 133.5,-12 133.5,-6 139.5,0 145.5,0 145.5,0 175.5,0 175.5,0 181.5,0 187.5,-6 187.5,-12 187.5,-12 187.5,-24 187.5,-24 187.5,-30 181.5,-36 175.5,-36"/>
<text text-anchor="middle" x="160.5" y="-14.5" font-family="sans" font-size="10.00">all</text>
</g>
<!-- 1 -->
<g id="node2" class="node">
<title>1</title>
<path fill="none" stroke="#59d856" stroke-width="2" d="M55,-108C55,-108 12,-108 12,-108 6,-108 0,-102 0,-96 0,-96 0,-84 0,-84 0,-78 6,-72 12,-72 12,-72 55,-72 55,-72 61,-72 67,-78 67,-84 67,-84 67,-96 67,-96 67,-102 61,-108 55,-108"/>
<text text-anchor="middle" x="33.5" y="-92.5" font-family="sans" font-size="10.00">train_model</text>
<text text-anchor="middle" x="33.5" y="-80.5" font-family="sans" font-size="10.00">model: xgb</text>
</g>
<!-- 1&#45;&gt;0 -->
<g id="edge1" class="edge">
<title>1&#45;&gt;0</title>
<path fill="none" stroke="grey" stroke-width="2" d="M65.88,-71.15C82.88,-61.78 103.83,-50.23 121.7,-40.39"/>
<polygon fill="grey" stroke="grey" stroke-width="2" points="123.2,-43.56 130.27,-35.66 119.82,-37.43 123.2,-43.56"/>
</g>
<!-- 2 -->
<g id="node3" class="node">
<title>2</title>
<path fill="none" stroke="#d85656" stroke-width="2" d="M140,-180C140,-180 73,-180 73,-180 67,-180 61,-174 61,-168 61,-168 61,-156 61,-156 61,-150 67,-144 73,-144 73,-144 140,-144 140,-144 146,-144 152,-150 152,-156 152,-156 152,-168 152,-168 152,-174 146,-180 140,-180"/>
<text text-anchor="middle" x="106.5" y="-164.5" font-family="sans" font-size="10.00">prepare_datasets</text>
<text text-anchor="middle" x="106.5" y="-152.5" font-family="sans" font-size="10.00">prep_way: 1</text>
</g>
<!-- 2&#45;&gt;1 -->
<g id="edge5" class="edge">
<title>2&#45;&gt;1</title>
<path fill="none" stroke="grey" stroke-width="2" d="M88.08,-143.34C80.01,-135.6 70.37,-126.36 61.46,-117.81"/>
<polygon fill="grey" stroke="grey" stroke-width="2" points="63.99,-115.39 54.35,-111 59.15,-120.44 63.99,-115.39"/>
</g>
<!-- 6 -->
<g id="node7" class="node">
<title>6</title>
<path fill="none" stroke="#59d856" stroke-width="2" d="M140,-108C140,-108 97,-108 97,-108 91,-108 85,-102 85,-96 85,-96 85,-84 85,-84 85,-78 91,-72 97,-72 97,-72 140,-72 140,-72 146,-72 152,-78 152,-84 152,-84 152,-96 152,-96 152,-102 146,-108 140,-108"/>
<text text-anchor="middle" x="118.5" y="-92.5" font-family="sans" font-size="10.00">train_model</text>
<text text-anchor="middle" x="118.5" y="-80.5" font-family="sans" font-size="10.00">model: log</text>
</g>
<!-- 2&#45;&gt;6 -->
<g id="edge9" class="edge">
<title>2&#45;&gt;6</title>
<path fill="none" stroke="grey" stroke-width="2" d="M109.53,-143.34C110.66,-136.75 111.97,-129.08 113.24,-121.67"/>
<polygon fill="grey" stroke="grey" stroke-width="2" points="116.68,-122.33 114.92,-111.89 109.78,-121.15 116.68,-122.33"/>
</g>
<!-- 3 -->
<g id="node4" class="node">
<title>3</title>
<path fill="none" stroke="#d6d856" stroke-width="2" d="M179.75,-252C179.75,-252 141.25,-252 141.25,-252 135.25,-252 129.25,-246 129.25,-240 129.25,-240 129.25,-228 129.25,-228 129.25,-222 135.25,-216 141.25,-216 141.25,-216 179.75,-216 179.75,-216 185.75,-216 191.75,-222 191.75,-228 191.75,-228 191.75,-240 191.75,-240 191.75,-246 185.75,-252 179.75,-252"/>
<text text-anchor="middle" x="160.5" y="-230.5" font-family="sans" font-size="10.00">clean_data</text>
</g>
<!-- 3&#45;&gt;2 -->
<g id="edge6" class="edge">
<title>3&#45;&gt;2</title>
<path fill="none" stroke="grey" stroke-width="2" d="M146.87,-215.34C141.23,-208.01 134.53,-199.34 128.24,-191.18"/>
<polygon fill="grey" stroke="grey" stroke-width="2" points="131.04,-189.08 122.16,-183.3 125.5,-193.35 131.04,-189.08"/>
</g>
<!-- 5 -->
<g id="node6" class="node">
<title>5</title>
<path fill="none" stroke="#d85656" stroke-width="2" d="M249,-180C249,-180 182,-180 182,-180 176,-180 170,-174 170,-168 170,-168 170,-156 170,-156 170,-150 176,-144 182,-144 182,-144 249,-144 249,-144 255,-144 261,-150 261,-156 261,-156 261,-168 261,-168 261,-174 255,-180 249,-180"/>
<text text-anchor="middle" x="215.5" y="-164.5" font-family="sans" font-size="10.00">prepare_datasets</text>
<text text-anchor="middle" x="215.5" y="-152.5" font-family="sans" font-size="10.00">prep_way: 2</text>
</g>
<!-- 3&#45;&gt;5 -->
<g id="edge8" class="edge">
<title>3&#45;&gt;5</title>
<path fill="none" stroke="grey" stroke-width="2" d="M174.38,-215.34C180.2,-207.93 187.1,-199.14 193.58,-190.9"/>
<polygon fill="grey" stroke="grey" stroke-width="2" points="196.14,-193.31 199.56,-183.28 190.63,-188.98 196.14,-193.31"/>
</g>
<!-- 4 -->
<g id="node5" class="node">
<title>4</title>
<path fill="none" stroke="#59d856" stroke-width="2" d="M225,-108C225,-108 182,-108 182,-108 176,-108 170,-102 170,-96 170,-96 170,-84 170,-84 170,-78 176,-72 182,-72 182,-72 225,-72 225,-72 231,-72 237,-78 237,-84 237,-84 237,-96 237,-96 237,-102 231,-108 225,-108"/>
<text text-anchor="middle" x="203.5" y="-92.5" font-family="sans" font-size="10.00">train_model</text>
<text text-anchor="middle" x="203.5" y="-80.5" font-family="sans" font-size="10.00">model: xgb</text>
</g>
<!-- 4&#45;&gt;0 -->
<g id="edge2" class="edge">
<title>4&#45;&gt;0</title>
<path fill="none" stroke="grey" stroke-width="2" d="M192.65,-71.34C188.25,-64.18 183.06,-55.73 178.15,-47.73"/>
<polygon fill="grey" stroke="grey" stroke-width="2" points="181.3,-46.17 173.08,-39.48 175.33,-49.83 181.3,-46.17"/>
</g>
<!-- 5&#45;&gt;4 -->
<g id="edge7" class="edge">
<title>5&#45;&gt;4</title>
<path fill="none" stroke="grey" stroke-width="2" d="M212.47,-143.34C211.34,-136.75 210.03,-129.08 208.76,-121.67"/>
<polygon fill="grey" stroke="grey" stroke-width="2" points="212.22,-121.15 207.08,-111.89 205.32,-122.33 212.22,-121.15"/>
</g>
<!-- 7 -->
<g id="node8" class="node">
<title>7</title>
<path fill="none" stroke="#59d856" stroke-width="2" d="M310,-108C310,-108 267,-108 267,-108 261,-108 255,-102 255,-96 255,-96 255,-84 255,-84 255,-78 261,-72 267,-72 267,-72 310,-72 310,-72 316,-72 322,-78 322,-84 322,-84 322,-96 322,-96 322,-102 316,-108 310,-108"/>
<text text-anchor="middle" x="288.5" y="-92.5" font-family="sans" font-size="10.00">train_model</text>
<text text-anchor="middle" x="288.5" y="-80.5" font-family="sans" font-size="10.00">model: log</text>
</g>
<!-- 5&#45;&gt;7 -->
<g id="edge10" class="edge">
<title>5&#45;&gt;7</title>
<path fill="none" stroke="grey" stroke-width="2" d="M233.92,-143.34C241.99,-135.6 251.63,-126.36 260.54,-117.81"/>
<polygon fill="grey" stroke="grey" stroke-width="2" points="262.85,-120.44 267.65,-111 258.01,-115.39 262.85,-120.44"/>
</g>
<!-- 6&#45;&gt;0 -->
<g id="edge3" class="edge">
<title>6&#45;&gt;0</title>
<path fill="none" stroke="grey" stroke-width="2" d="M129.1,-71.34C133.34,-64.26 138.35,-55.92 143.1,-48"/>
<polygon fill="grey" stroke="grey" stroke-width="2" points="146.06,-49.87 148.2,-39.5 140.06,-46.27 146.06,-49.87"/>
</g>
<!-- 7&#45;&gt;0 -->
<g id="edge4" class="edge">
<title>7&#45;&gt;0</title>
<path fill="none" stroke="grey" stroke-width="2" d="M255.87,-71.15C238.73,-61.78 217.62,-50.23 199.61,-40.39"/>
<polygon fill="grey" stroke="grey" stroke-width="2" points="201.41,-37.38 190.96,-35.66 198.05,-43.52 201.41,-37.38"/>
</g>
</g>
</svg>
